{
    "page": 1,
    "pages": 4885,
    "perpage": 20,
    "total": 97683,
    "photo": [
        {
            "id": "55077080952",
            "owner": "83894187@N04",
            "secret": "19d2a80152",
            "server": "65535",
            "farm": 66,
            "title": "Sunflower",
            "ispublic": 1,
            "isfriend": 0,
            "isfamily": 0
        },
        {
            "id": "55078181048",
            "owner": "83894187@N04",
            "secret": "f2aaf7904e",
            "server": "65535",
            "farm": 66,
            "title": "Sunflower",
            "ispublic": 1,
            "isfriend": 0,
            "isfamily": 0
        },
        {
            "id": "55078180873",
            "owner": "83894187@N04",
            "secret": "cd826ba1dc",
            "server": "65535",
            "farm": 66,
            "title": "Sunflower",
            "ispublic": 1,
            "isfriend": 0,
            "isfamily": 0
        },
        {
            "id": "55077078437",
            "owner": "83894187@N04",
            "secret": "007fe551e7",
            "server": "65535",
            "farm": 66,
            "title": "Hibiscus",
            "ispublic": 1,
            "isfriend": 0,
            "isfamily": 0
        },
        {
            "id": "55077981196",
            "owner": "83894187@N04",
            "secret": "0b2bfbbf97",
            "server": "65535",
            "farm": 66,
            "title": "Hibiscus",
            "ispublic": 1,
            "isfriend": 0,
            "isfamily": 0
        },
        {
            "id": "55078238719",
            "owner": "83894187@N04",
            "secret": "6a4d1cd074",
            "server": "65535",
            "farm": 66,
            "title": "African Daisy",
            "ispublic": 1,
            "isfriend": 0,
            "isfamily": 0
        },
        {
            "id": "55077078032",
            "owner": "83894187@N04",
            "secret": "58ff2ae389",
            "server": "65535",
            "farm": 66,
            "title": "Hibiscus",
            "ispublic": 1,
            "isfriend": 0,
            "isfamily": 0
        },
        {
            "id": "55078238714",
            "owner": "83894187@N04",
            "secret": "2eb4f6c69b",
            "server": "65535",
            "farm": 66,
            "title": "African Daisies",
            "ispublic": 1,
            "isfriend": 0,
            "isfamily": 0
        },
        {
            "id": "55078341070",
            "owner": "83894187@N04",
            "secret": "0d5d897817",
            "server": "65535",
            "farm": 66,
            "title": "African Daisy",
            "ispublic": 1,
            "isfriend": 0,
            "isfamily": 0
        },
        {
            "id": "55077077757",
            "owner": "83894187@N04",
            "secret": "6ef076c788",
            "server": "65535",
            "farm": 66,
            "title": "Hibiscus",
            "ispublic": 1,
            "isfriend": 0,
            "isfamily": 0
        },
        {
            "id": "55078340960",
            "owner": "83894187@N04",
            "secret": "e4989afcf2",
            "server": "65535",
            "farm": 66,
            "title": "Morning Glory",
            "ispublic": 1,
            "isfriend": 0,
            "isfamily": 0
        },
        {
            "id": "55077077642",
            "owner": "83894187@N04",
            "secret": "90c651af02",
            "server": "65535",
            "farm": 66,
            "title": "Morning Glory",
            "ispublic": 1,
            "isfriend": 0,
            "isfamily": 0
        },
        {
            "id": "55077980376",
            "owner": "83894187@N04",
            "secret": "bc5126b56b",
            "server": "65535",
            "farm": 66,
            "title": "Sunflower",
            "ispublic": 1,
            "isfriend": 0,
            "isfamily": 0
        },
        {
            "id": "55078238019",
            "owner": "83894187@N04",
            "secret": "feb5ea1b9f",
            "server": "65535",
            "farm": 66,
            "title": "Morning Glory",
            "ispublic": 1,
            "isfriend": 0,
            "isfamily": 0
        },
        {
            "id": "55078179688",
            "owner": "83894187@N04",
            "secret": "3b3aa08c1f",
            "server": "65535",
            "farm": 66,
            "title": "Hibiscus",
            "ispublic": 1,
            "isfriend": 0,
            "isfamily": 0
        },
        {
            "id": "55078340215",
            "owner": "83894187@N04",
            "secret": "2f040bb214",
            "server": "65535",
            "farm": 66,
            "title": "Morning Glory",
            "ispublic": 1,
            "isfriend": 0,
            "isfamily": 0
        },
        {
            "id": "55078340075",
            "owner": "83894187@N04",
            "secret": "6a7797cd9b",
            "server": "65535",
            "farm": 66,
            "title": "Black-Eyed Susan",
            "ispublic": 1,
            "isfriend": 0,
            "isfamily": 0
        },
        {
            "id": "55078237569",
            "owner": "83894187@N04",
            "secret": "c960e189e6",
            "server": "65535",
            "farm": 66,
            "title": "Black-Eyed Susan",
            "ispublic": 1,
            "isfriend": 0,
            "isfamily": 0
        },
        {
            "id": "55077076787",
            "owner": "83894187@N04",
            "secret": "65aec59fdf",
            "server": "65535",
            "farm": 66,
            "title": "Sunflower",
            "ispublic": 1,
            "isfriend": 0,
            "isfamily": 0
        },
        {
            "id": "55078179038",
            "owner": "83894187@N04",
            "secret": "66a49138ee",
            "server": "65535",
            "farm": 66,
            "title": "Sunflower",
            "ispublic": 1,
            "isfriend": 0,
            "isfamily": 0
        }
    ]
}